{
  "Server": [ { "Name": "LAPTOP-C304EKGS" } ],
  "Database": [
    { "Name": "SecureAccess" },
    { "Name": "LibrarySys" },
    { "Name": "Workflow" },
    { "Name": "School" },
    { "Name": "SchoolLibrary" },
    { "Name": "QCC2020" },
    { "Name": "MechineLearning" }
  ]

}
